Análise Exploratoria df veiculos
…
print("Top 5 tipos de falhas por país:")

## [1] "Top 5 tipos de falhas por país:"

falhas_por_pais %>%
  group_by(ZIEL_LAND) %>%
  slice_max(order_by = total_falhas, n = 5)

## # A tibble: 93 × 5
## # Groups:   ZIEL_LAND [17]
##    ZIEL_LAND TYPE_TEXT        veiculos_afetados total_falhas media_falhas_por_vei…¹
##    <chr>     <chr>                        <int>        <int>                  <dbl>
##  1 "AR "     "126 - Sujeiras…              9476        15840                   1.67
##  2 "AR "     "004 - Amassado"              7441        10719                   1.44
##  3 "AR "     "081 - Caroço"                6056         7926                   1.31
##  4 "AR "     "125 - Amassado…              2957         3579                   1.21
##  5 "AR "     "040 - Ajuste I…              2316         2993                   1.29
##  6 "ARG"     "126 - Sujeiras…               189          305                   1.61
##  7 "ARG"     "081 - Caroço"                 126          170                   1.35
##  8 "ARG"     "004 - Amassado"               121          148                   1.22
##  9 "ARG"     "087 - Ponto de…                53           66                   1.25
## 10 "ARG"     "125 - Amassado…                45           59                   1.31
## # ℹ 83 more rows
## # ℹ abbreviated name: ¹​media_falhas_por_veiculo
…
